%YAML 1.1
%TAG !u! tag:unity3d.com,2011:
--- !u!114 &11400000
MonoBehaviour:
  m_ObjectHideFlags: 0
  m_CorrespondingSourceObject: {fileID: 0}
  m_PrefabInstance: {fileID: 0}
  m_PrefabAsset: {fileID: 0}
  m_GameObject: {fileID: 0}
  m_Enabled: 1
  m_EditorHideFlags: 0
  m_Script: {fileID: 11500000, guid: 8cd86d224287db645b364728538661f3, type: 3}
  m_Name: Death 21
  m_EditorClassIdentifier: 
  serializationData:
    SerializedFormat: 2
    SerializedBytes: 
    ReferencedUnityObjects: []
    SerializedBytesString: 
    Prefab: {fileID: 0}
    PrefabModificationsReferencedUnityObjects: []
    PrefabModifications: []
    SerializationNodes:
    - Name: LeftEffect
      Entry: 7
      Data: 0|System.Collections.Generic.Dictionary`2[[ParameterType, Assembly-CSharp],[System.Int32,
        mscorlib]], mscorlib
    - Name: comparer
      Entry: 7
      Data: 1|System.Collections.Generic.EnumEqualityComparer`1[[ParameterType, Assembly-CSharp]],
        mscorlib
    - Name: 
      Entry: 12
      Data: 0
    - Name: 
      Entry: 13
      Data: 
    - Name: 
      Entry: 8
      Data: 
    - Name: 
      Entry: 12
      Data: 0
    - Name: 
      Entry: 13
      Data: 
    - Name: 
      Entry: 8
      Data: 
    - Name: RightEffect
      Entry: 7
      Data: 2|System.Collections.Generic.Dictionary`2[[ParameterType, Assembly-CSharp],[System.Int32,
        mscorlib]], mscorlib
    - Name: comparer
      Entry: 9
      Data: 1
    - Name: 
      Entry: 12
      Data: 0
    - Name: 
      Entry: 13
      Data: 
    - Name: 
      Entry: 8
      Data: 
    - Name: UpEffect
      Entry: 7
      Data: 3|System.Collections.Generic.Dictionary`2[[ParameterType, Assembly-CSharp],[System.Int32,
        mscorlib]], mscorlib
    - Name: comparer
      Entry: 9
      Data: 1
    - Name: 
      Entry: 12
      Data: 0
    - Name: 
      Entry: 13
      Data: 
    - Name: 
      Entry: 8
      Data: 
  type: 0
  Art: {fileID: 21300000, guid: 81f77cdf55212314dacf885f86544a27, type: 3}
  shortChoiseText:
  - Go to menu
  - restart
  description: you are arrested
  hasUpAction: 0
  hasDownAction: 0
