%YAML 1.1
%TAG !u! tag:unity3d.com,2011:
--- !u!1045 &1
EditorBuildSettings:
  m_ObjectHideFlags: 0
  serializedVersion: 2
  m_Scenes:
  - enabled: 1
    path: Assets/Scenes/start.unity
    guid: 2cda990e2423bbf4892e6590ba056729
  - enabled: 1
    path: Assets/Scenes/menu.unity
    guid: c0f2468fd7de861468bbe94a12ea4f38
  - enabled: 1
    path: Assets/Scenes/gameplay.unity
    guid: 9ef7ca174de97374e9bf27f4968773cb
  m_configObjects: {}
