%YAML 1.1
%TAG !u! tag:unity3d.com,2011:
--- !u!114 &11400000
MonoBehaviour:
  m_ObjectHideFlags: 0
  m_CorrespondingSourceObject: {fileID: 0}
  m_PrefabInstance: {fileID: 0}
  m_PrefabAsset: {fileID: 0}
  m_GameObject: {fileID: 0}
  m_Enabled: 1
  m_EditorHideFlags: 0
  m_Script: {fileID: 11500000, guid: 8cd86d224287db645b364728538661f3, type: 3}
  m_Name: Ally 1
  m_EditorClassIdentifier: 
  serializationData:
    SerializedFormat: 2
    SerializedBytes: 
    ReferencedUnityObjects: []
    SerializedBytesString: 
    Prefab: {fileID: 0}
    PrefabModificationsReferencedUnityObjects: []
    PrefabModifications: []
    SerializationNodes:
    - Name: LeftEffect
      Entry: 7
      Data: 0|System.Collections.Generic.Dictionary`2[[ParameterType, Assembly-CSharp],[System.Int32,
        mscorlib]], mscorlib
    - Name: comparer
      Entry: 7
      Data: 1|System.Collections.Generic.EnumEqualityComparer`1[[ParameterType, Assembly-CSharp]],
        mscorlib
    - Name: 
      Entry: 12
      Data: 0
    - Name: 
      Entry: 13
      Data: 
    - Name: 
      Entry: 8
      Data: 
    - Name: 
      Entry: 12
      Data: 2
    - Name: 
      Entry: 7
      Data: 
    - Name: $k
      Entry: 3
      Data: 0
    - Name: $v
      Entry: 3
      Data: -5
    - Name: 
      Entry: 8
      Data: 
    - Name: 
      Entry: 7
      Data: 
    - Name: $k
      Entry: 3
      Data: 2
    - Name: $v
      Entry: 3
      Data: -5
    - Name: 
      Entry: 8
      Data: 
    - Name: 
      Entry: 13
      Data: 
    - Name: 
      Entry: 8
      Data: 
    - Name: RightEffect
      Entry: 7
      Data: 2|System.Collections.Generic.Dictionary`2[[ParameterType, Assembly-CSharp],[System.Int32,
        mscorlib]], mscorlib
    - Name: comparer
      Entry: 9
      Data: 1
    - Name: 
      Entry: 12
      Data: 2
    - Name: 
      Entry: 7
      Data: 
    - Name: $k
      Entry: 3
      Data: 0
    - Name: $v
      Entry: 3
      Data: 10
    - Name: 
      Entry: 8
      Data: 
    - Name: 
      Entry: 7
      Data: 
    - Name: $k
      Entry: 3
      Data: 2
    - Name: $v
      Entry: 3
      Data: 10
    - Name: 
      Entry: 8
      Data: 
    - Name: 
      Entry: 13
      Data: 
    - Name: 
      Entry: 8
      Data: 
    - Name: UpEffect
      Entry: 7
      Data: 3|System.Collections.Generic.Dictionary`2[[ParameterType, Assembly-CSharp],[System.Int32,
        mscorlib]], mscorlib
    - Name: comparer
      Entry: 9
      Data: 1
    - Name: 
      Entry: 12
      Data: 0
    - Name: 
      Entry: 13
      Data: 
    - Name: 
      Entry: 8
      Data: 
  type: 2
  Art: {fileID: 21300000, guid: 820e0c1f10a0e6d409e80e7dd49de02d, type: 3}
  shortChoiseText:
  - too risky
  - you read my mind
  - Postpone
  description: Let's attack our rivals
  hasUpAction: 0
  hasDownAction: 1
